Reports/RS_Top.vcd
$timescale
 10ps
$end

$scope module tb_System_FromFile $end
$var reg       44 $    in_data [0:43] $end
$var reg       60 "    error_mask [0:59] $end
$var integer   32 #    inFile $end
$var reg       60 %    modified_data [0:59] $end
$var wire      44 T    out_data [0:43] $end
$var wire       1 S    valid $end
$var integer   32 &    outFile $end
$upscope $end
$enddefinitions $end
#0
$dumpvars
b000000000000000000000000000000000000000000000000000000000000 "
b10000000000000000000000000000100 #
b00010010001101000101011001111000100110101011 $
bxxxxxxxxxxxxxxxxxxxxxxxxxxxxxxxxxxxxxxxxxxxxxxxxxxxxxxxxxxxx %
b10000000000000000000000000000011 &
xS
bxxxxxxxxxxxxxxxxxxxxxxxxxxxxxxxxxxxxxxxxxxxx T
$end
#788
1S
#1530
bxxxxxxxxxxxxxx00xxxxxxxxxxxxx000xxxxxxxxxxxx T
#1546
bxxxxxxxxxxxxx100xxxxxxxxxxxxx000xxxxxxxxxxxx T
#1584
bxxxxxxxxxxxxx100xxxxxxxxxxxxx000xxxxx0xxxxxx T
#1586
bxxxxx0xxxxxxx100xxxxxxxxxxxxx000xxxxx0x0xxxx T
#1588
bxxxxx0x0xxxxx100xxxxxxx0xxxxx000xxxxx0x0xxxx T
#1600
bxxxxx0x0xxxxx100xxxxxxx0xxxxx000xxxxx010xxxx T
#1602
bxxxxx010xxxxx100xxxxx110xxxxx000xxxxx010xxxx T
#1618
bxxxxx010xxxxx100xxxxx110xxxxx000x00xx010xxxx T
#1619
bxxxxx010xxxxx100xxxxx110xxxxx000x00xx010x0xx T
#1620
bx00xx010xxxxx100xx0xx110xxxxx000x00xx010x0xx T
#1621
bx00xx010x0xxx100xx0xx110xxxxx000x00xx010x0xx T
#1634
bx00xx010x0xxx100xx0xx110xxxxx000x001x010x0x1 T
#1635
bx00xx010x0xxx100xx0xx110xxxxx000x001x010x011 T
#1636
bx001x010x0xxx100x101x110xxx1x000x001x010x011 T
#1637
bx001x010x01xx100x101x110x111x000x001x010x011 T
#1644
bx001x010x011x100x101x110x111x000x001x010x011 T
#1674
bx0010010x0110100x1010110x111x000x001x010x011 T
#1688
bx0010010x0110100x1010110x111x000x0011010x011 T
#1690
bx0010010x0110100x1010110x1111000x0011010x011 T
#1708
b00010010x011010001010110x1111000x0011010x011 T
#1709
b00010010001101000101011001111000x0011010x011 T
#1722
b0001001000110100010101100111100010011010x011 T
#1723
b00010010001101000101011001111000100110101011 T
#10000
b000000000000000000000000000000000000000000010000000000000000 "
#10054
b00010010001101000101011001111000100110101010 T
#10262
0S
#10653
1S
#10801
0S
#10849
1S
#10886
0S
#10950
1S
#11061
b00010010001101000101011001111000100010101010 T
#11068
b00010010001101000101011001111000000010101010 T
#11089
b00010010001101000101011001111000000010100010 T
#11106
b00010010001101000101011001111000000010100011 T
#11119
b00010010001101000101011001111000001010100011 T
#11140
0S
#11141
b00010010001101000101011001111000000010100011 T
#11152
b00010010001101000101011001111000000010100010 T
#11167
b00010010001101000101011001111000000010101010 T
#11180
b00010010001101000101011001111000100110101010 T
#11242
1S
#11261
b00010010001101000101011001111000100010101010 T
#11277
b00010010001101000101011001111000111010101010 T
#11282
b00010010001101000101011001111000111010100000 T
#11298
b00010010001101000101011001111000111010100100 T
#11299
b00010010001101000101011001111000111010100101 T
#11303
0S
#11327
b00000010001101000101011001111000111010100101 T
#11336
b00000010001101000101011001111000100010100000 T
#11341
b00000010001101000101011001111000100010101000 T
#11343
b00100010001101000101011001111000100010101000 T
#11352
b00100010001101000101011001111000100110101010 T
#11373
b00000010001101000101011001111000100110101010 T
#11374
b10000010001101000101011001111000100110101010 T
#11411
b10010010001101000101011001111000100110101010 T
#11444
b10000010001101000101011001111000100110101010 T
#11475
b11000010001101000101011001111000100110101010 T
#11496
1S
#11505
b11000010001101000101011001111000000110101010 T
#11517
b01000010001101000101011001111000000110101010 T
#11521
b00000010001101000101011001111000000110101010 T
#11532
0S
#11537
b00010010001101000101011001111000000110101010 T
#11558
b00010010001101000101011001111000100110101010 T
#11571
1S
#11605
0S
#11658
1S
#11813
b00010010001101000111011001111000100110101010 T
#11837
b00010010001101000101011001111000100110101010 T
#11845
0S
#11922
1S
#11947
b00010010001101000101011001111000100110101110 T
#11985
b00010010001101000101011001111000100110101010 T
#12071
b00010010001101000101011001111000100110101000 T
#12093
b00010010001101000101011001111000100110100000 T
#12124
b00010010001101000101011001111000100110100100 T
#12180
b00010010001101000101011001111000100110100000 T
#12218
b00010010001101000101011001111000100110101000 T
#12261
b00010010001101000101011001111000100110101001 T
#12278
b00010010001101000101011001111000100110101011 T
#12297
b00110010001101000101011001111000100110101011 T
#12309
b00110010001101000101011001111000100110101001 T
#12310
b00110010001101000101011001111000100110100001 T
#12331
b00110010001101000101011001111000100110100101 T
#12376
b00110010001101000101011001111000100110100100 T
#12381
b10110010001101000101011001111000100110100100 T
#12417
b10110010001101000101011001111000100110100000 T
#12433
b10010010001101000101011001111000100110100000 T
#12456
b10010010001101000101011001111000100110100001 T
#12495
b10010010001101000101011001111000100110100101 T
#12507
b00010010001101000101011001111000100110100101 T
#12575
b00010010001101000101011001111000100110100100 T
#12639
b00010010001101000101011001111000100110100101 T
#12683
b00010010001101000101011001111000100110100100 T
#12827
b00010010001101000101011001111000100110100101 T
#12875
b00010010001101000101011001111000100110101101 T
#12920
b00010010001101000101011001111000100110101111 T
#12956
b00010010001101000101011001111000100110101011 T
#20000
b10111010100110000111011001010100001100100001 $
b000000000000000000000000000000000000000000000000000000001111 "
#20020
b00010010001101000101011001111000100110101010 T
#20054
b00010010000100000101011001010000000100100000 T
#20060
b10111010100110000111011001010100001100100000 T
#20582
b10111010100110000111011001010100001000100000 T
#20618
0S
#20640
b10111010100110000111011001010100001100100000 T
#20661
1S
#20672
b10111010100110000111011001010100001000100000 T
#20708
0S
#20757
b10111010100110000111011001010100001100100001 T
#20786
1S
#20795
b10111010100110000111011001010100001000100001 T
#20827
b10111010100110000111011001010100001000100000 T
#20842
b10111010100110000111011001010100001000101010 T
#20847
b10111010100110000111011001010100001100101010 T
#20878
0S
#20883
b10111010100110000111011001010100001100100000 T
#20900
b10111010100110000111011001010100001100100001 T
#20923
1S
#20969
b10111010100110000111011001010100101100100001 T
#20999
b10111010100110000111011001010100111100100001 T
#21018
0S
#21028
b00111010100110000111011001010100111100100001 T
#21037
b00111010100110000111011001010100001100100001 T
#21044
b01111010100110000111011001010100001100100001 T
#21047
b01101010100110000111011001010100001100100001 T
#21054
b01001010100110000111011001010100001100100001 T
#21065
1S
#21091
b00001010100110000111011001010100001100100001 T
#21121
b10111010100110000111011001010100001100100001 T
#21173
b10011010100110000111011001010100001100100001 T
#21182
b10001010100110000111011001010100001100100001 T
#21185
b10001010100110000111011001010100001100100000 T
#21190
0S
#21200
b10001010100110000111011001010100001100101000 T
#21223
b10001010100110000111011001010100001100100000 T
#21239
b10001010100110000111011001010100001100100001 T
#21253
b10001010100110000101011001010100001100100001 T
#21258
b10001010100110000100011001010100001100100001 T
#21269
b10001010100110000100011001110100001100100001 T
#21297
b10001010100110000100011001010100001100100001 T
#21298
1S
b10111010100110000100011001010100001100100001 T
#21332
b10111010100110000111011001010100001100100001 T
#21533
b10111010100110000111011001010100001000100001 T
#21559
b10101010100110000111011001010100001000100001 T
#21571
b10101010100110000111011001010100001000100111 T
#21592
b10101010100110000111011001010100001000100001 T
#21603
b10101010100110000111011001010100001100100001 T
#21615
0S
#21633
b10111010100110000111011001010100001100100001 T
#21636
b10111010100110000111011001000100001100100001 T
#21665
b00111010100110000111011001000100001100100001 T
#21667
1S
#21684
b00111010100110000111011001010100001100100001 T
#21711
0S
#21738
b00111000100110000111011001010100001100100001 T
#21742
b10111000100110000111011001010100001100100001 T
#21754
1S
b10111100100110000111011001010100001100100001 T
#21775
b10111000100110000111011001010100001100100001 T
#21779
b10111000100110000111011001010100001110100001 T
#21791
b10111010100110000111011001010100001110100001 T
#21792
b10101010100110000111011001010100001110100001 T
#21808
b10101010100110000111011001010100001100100001 T
#21859
b10101010100110000111011001010100001100100000 T
#21860
b10101010100110000111011001010100011100100000 T
#21862
b10101010100110000111011001010100011100100100 T
#21876
b00101010100110000111011001010100011100100100 T
#21880
0S
#21903
b00101010100110000111011001010100001100100100 T
#21904
b00001010100110000111011001010100001100100100 T
#21913
b00001010100110000111011001010100001100100000 T
#21922
b00001010100110000111011001010100001100100001 T
#21927
b00001010100110000110011001010100001100100001 T
#21946
b00001010100110000010011001010100001100100001 T
#21962
b00101010100110000010011001010100001100100001 T
#21972
1S
#21988
b00101010100110000011011001010100001100100001 T
#21995
b00111010100110000011011001010100001100100001 T
#22002
b00111010100110000111011001010100001100100001 T
#22004
b00111010100110001111011001010100001100100001 T
#22029
b10111010100110001111011001010100001100100001 T
#22041
0S
#22067
b10111010100110000111011001010100001100100001 T
#22077
1S
#22118
b10111010100110000111011001010100001100100000 T
#22133
b10111010100110000111011001010100001100101000 T
#22177
b10111010100110000111011001010100001100101001 T
#22201
b10111010100110000111011001010100001100100001 T
#22214
b10111010100110000111011001010100011100100001 T
#22269
b10111010100110000111011001010100001100100001 T
#22548
b11111010100110000111011001010100001100100001 T
#22681
b01111010100110000111011001010100001100100001 T
#22692
b00111010100110000111011001010100001100100001 T
#22765
b10111010100110000111011001010100001100100001 T
#30000
b00010011010101111001101100100100011010001010 $
b000000000011000000000000000000000000000000000000010100000000 "
#30054
b00010010000000000001001000000100001000000000 T
#30060
b00010011011001111001101100100100011010001010 T
#30879
0S
#30928
1S
#30993
b00010011011001111001101100100100000010001010 T
#31009
b00010011011001111001101100100100000110001010 T
#31012
b00010011011001111001101100100100000110001000 T
#31028
b00010011011001111001101100100100000110001100 T
#31029
0S
b00010011011001111001101100100100000110001101 T
#31058
b00010011011001111001101100100100000010001101 T
#31062
b00010011011001111001101100100100000010001000 T
#31074
b00010011011001111001101100100100011010001000 T
#31078
b00010011011001111001101100100100011010001010 T
#31147
1S
#31194
b00010011011001111001101100100100001010001010 T
#31198
b00010011011001111001101100100100000010001010 T
#31258
b00010011011001111001101100100100001110001010 T
#31299
b00010011011001111001101100100100101110001010 T
#31309
b00010011011001111001101100100100101010001010 T
#31323
b00010011011001111001101100100100111010001010 T
#31331
b00010011011001111001101100100100011010001010 T
#31432
b00010011011001111001101100100100011010001011 T
#31460
b00010011011001111001101100100100011010001010 T
#31500
b00010011011001111001101100100000011010001010 T
#31516
b00010011011001111001101100101000011010001010 T
#31550
b00010011011001111001101100100000011010001010 T
#31566
b00010011011001111001101100100100011010001010 T
#31633
0S
#31670
b00000011011001111001101100100100011010001010 T
#31673
b00000011011001111000101100100100011010001010 T
#31689
b00000011011001111010101100100100011010001010 T
#31718
1S
b00010011011001111010101100100100011010001010 T
#31792
0S
#31803
b00010011011001111000101100100100011010001010 T
#31823
b00010011011001111001101100100100011010001010 T
#31836
b00000011011001111001101100100100011010001010 T
#31843
1S
#31852
b10000011011001111001101100100100011010001010 T
#31883
b10000011011001111001101100100100011010000010 T
#31905
b10000011011001111001101100100100011010000000 T
#31932
b10000011011001111001101100100100011010000100 T
#31936
b10000011011001111001101100100100001010000100 T
#31956
b10000011011001111001101100100100001010000101 T
#31973
b11000011011001111001101100100100001010000101 T
#31978
b01000011011001111001101100100100001010000101 T
#31983
b01000011011001111001101100100100001010000111 T
#31989
b01000011011001111001101100100100001010000110 T
#32000
b01000011011001111001101100100100011010000110 T
#32005
b01000011011001111001101100100100011010000010 T
#32021
b01000011011001111001101100100100011010001010 T
#32022
b11000011011001111001101100100100011010001010 T
#32033
b11001011011001111001101100100100011010001010 T
#32054
b11001011011001110001001100100100011010001010 T
#32057
b10001011011001110001001100100100011010001010 T
#32068
b00000011011001110001001100100100011010001010 T
#32073
b00010011011001110001001100100100011010001010 T
#32093
b00010011011001110001001100100110011010001010 T
#32115
b00010011011001110001101100100110011010001010 T
#32123
b00010011011001111001101100100110011010001010 T
#32130
b00010011011001111001101100100100011010001010 T
#32146
0S
#32177
b00010011000001111001101100100100011010001010 T
#32193
b00010011100001111001101100100100011010001010 T
#32196
b00010000100001111001101100100100011010001010 T
#32204
1S
#32220
b00010000100001111001101100100100011000001010 T
#32223
b00010000000001111001101100100100011000001010 T
#32231
b00010000000001111001101100100100001000001010 T
#32236
b00010000000001111001101100100100001001111010 T
#32239
b00010000011001111001101100100100001001111010 T
#32247
b00010000011001111001101100100100101101111010 T
#32248
b00010011011001111001101100100100101101111010 T
#32269
b00010011011001111001101100100100101001111010 T
#32279
b00010011011001111001101100100100001000001010 T
#32295
b00010011011001111001101100100100011010001010 T
#32320
0S
#32343
b00000011011001111001101100100100011010001010 T
#32359
b11000011011001111001101100100100011010001010 T
#32418
b01000011011001111001101100100100011010001010 T
#32421
1S
#32446
b01000011011001111001101100100100011110001010 T
#32451
b01100011011001111001101100100100011110001010 T
#32460
b01100011011001111001101100100100111110001010 T
#32463
0S
#32471
b11100011011001111001101100100100111110001010 T
#32491
b11000011011001111001101100100100111110001010 T
#32496
b11000011011001111001101100100100011010001010 T
#32510
1S
#32522
b10000011011001111001101100100100011010001010 T
#32578
b11000011011001111001101100100100011010001010 T
#32618
b01000011011001111001101100100100011010001010 T
#32626
b00000011011001111001101100100100011010001010 T
#32635
b00000011010001111001101100100100011010001010 T
#32640
b00010011010001111001101100100100011010001010 T
#32651
b00010011110001111001101100100100011010001010 T
#32664
b10010011110001111001101100100100011010001010 T
#32699
b10010011010001111001101100100100011010001010 T
#32703
b10010011010101111001101100100100011010001010 T
#32714
b00010011010101111001101100100100011010001010 T
#32715
b00010011011101111001101100100100011010001010 T
#32765
b00010011011001111001101100100100011010001010 T
#32909
b00010011111001111001101100100100011010001010 T
#32949
b00010011011001111001101100100100011010001010 T
#33107
b00010011011101111001101100100100011010001010 T
#33138
b00010011011001111001101100100100011010001010 T
#33181
b00010011111001111001101100100100011010001010 T
#33216
b00010011110001111001101100100100011010001010 T
#33276
b00010011110101111001101100100100011010001010 T
#33317
b00010011111101111001101100100100011010001010 T
#33372
b00010011110101111001101100100100011010001010 T
#33399
b00010011100101111001101100100100011010001010 T
#33510
b00010011100001111001101100100100011010001010 T
#33523
b00010011110001111001101100100100011010001010 T
#33599
b00010011100001111001101100100100011010001010 T
#33619
b00010011000001111001101100100100011010001010 T
#33629
b00010011000101111001101100100100011010001010 T
#33668
b00010011001101111001101100100100011010001010 T
#33677
b00010011011101111001101100100100011010001010 T
#33712
b00010011001101111001101100100100011010001010 T
#33756
b00010011101101111001101100100100011010001010 T
#33773
b00010011100101111001101100100100011010001010 T
#33819
b00010011110101111001101100100100011010001010 T
#33938
b00010011010101111001101100100100011010001010 T
#40000
b00100100011010001010000100110101011110011011 $
b000000000000100000000000000000001100000000000000000000001111 "
#40054
b00000000010100001000000100100100001010001010 T
#40060
b00100100010100001010000100110101101110011011 T
#40694
b00100100010100001010000100110101101110011000 T
#40773
b00100100010100001010000100110101101110011011 T
#40802
b00100100010100001010000100110101101010011001 T
#40804
b00100100011100001010000100110101101010011001 T
#40852
b00100100011000001010000100110101101010011001 T
#40857
b00100100011000001010000100110101101110011011 T
#40887
b00101100011000001010000100110101101110011011 T
#40896
0S
#40908
b10101100011000001010000100110101101110011011 T
#40916
b10100100011000001010000100110101101110011011 T
#40925
b10000100011000001010000100110101101110011011 T
#40928
b10000100011000000000000100110101101110011011 T
#40957
b00000100011000000000000100110101101110011011 T
#40973
1S
b00100100011000000000000100110101101110011011 T
#40974
b00100100011000000100000100110101101110011011 T
#40994
b00100100011000000100000100110101000110011011 T
#41006
b00100100011000001100000100110101000110011011 T
#41010
b00100100011000001100000100110101010110011011 T
#41027
b00100100011000000100000100110101010110011011 T
#41044
b00100100011000000100000100110101010010011011 T
#41047
b00100100011000000101000100110101010010011011 T
#41069
b11110100011000000101000100110101010010011011 T
#41070
b11110100011000000000000100110101010010011011 T
#41079
b11110100011000000010000100110101010010011011 T
#41080
b11110100011000000010000100110101000010011011 T
#41086
b11110100011000001010000100110101000010011011 T
#41098
b11110100011000001010000100110101001010011011 T
#41102
b11100100011000001010000100110101001010011011 T
#41123
b11000100011000001010000100110101001010011011 T
#41134
b11000100011000001010000100110101001110011011 T
#41173
b11000100011000001010000100110101101110011011 T
#41193
0S
#41203
b11100100011000001010000100110101101110011011 T
#41208
b10100100011000001010000100110101101110011011 T
#41256
b00100100011000001010000100110101101110011011 T
#41272
b00110100011000001010000100110101101110011011 T
#41302
b00110101011000001010000100110101101110011011 T
#41324
b00010101011000001010000100110101101110011011 T
#41328
b01010101011000001010000100110101101110011011 T
#41334
b01000101011000001010000100110101101110011011 T
#41336
b01000100011000001010000100110101101110011011 T
#41355
b00000100011000001010000100110101101110011011 T
#41368
1S
#41388
b00100100011000001010000100110101101110011011 T
#41462
b00100100011000001010000100110101100000001011 T
#41478
b00100100011000001010000100110101110001001011 T
#41487
b00100100011000001010000100110101110001101011 T
#41508
b00110100011000001010000100110101110001101011 T
#41539
b00110100011000001010000100110101110011101011 T
#41547
b01110100011000001010000100110101110011101011 T
#41551
b01110100011000001010000100110101110010001011 T
#41552
b01110100011000001010000100110101110010011011 T
#41556
0S
#41568
b01110100011000001010000100110101100010011011 T
#41584
b01110100011000001010000100110101101110011011 T
#41610
b00100100011000001010000100110101101110011011 T
#41633
b00100100011000001010000100110101001110011011 T
#41644
b00100000011000001010000100110101001110011011 T
#41650
b10100000011000001010000100110101001110011011 T
#41660
b10101010011000001010000100110101001110011011 T
#41664
b10101010011000111010000100110101001110011011 T
#41671
1S
#41680
b10001010011000111010000100110101001110011011 T
#41690
b10000000011000111010000100110101001110011011 T
#41691
b10000000011000111010000100110101101110011011 T
#41696
b11010000011000111010000100110101101110011011 T
#41698
b01010000011000111010000100110101101110011011 T
#41706
b01010100011000111010000100110101101110011011 T
#41717
b01010100011000001010000100110101101110011011 T
#41722
b00000100011000001010000100110101101110011011 T
#41738
b00100100011000001010000100110101101110011011 T
#41739
b00100100011000001010000100110101101110011001 T
#41740
b00100100011000001010000100110101101110011000 T
#41755
b00100100011000001010000100110101101110011100 T
#41778
b00100100011000001010000100110101101110011000 T
#41792
b00100100111000001010000100110101101110011000 T
#41794
b00100100111000001010000100110101101110011011 T
#41818
b00100100011000001010000100110101101110011011 T
#41822
b00100100011000001010000110110101101110011011 T
#41860
b00100100011000001010000100110101101110011011 T
#41916
b00100100011000001010000100110101000110011011 T
#41952
0S
#41990
b00100100011000000010000100110101000110011011 T
#41992
b10110100011000000010000100110101000110011011 T
#42001
b10110100011000000010000100110101101110011011 T
#42006
b10110100011000000011000100110101101110011011 T
#42011
1S
#42019
b00100100011000000011000100110101101110011011 T
#42028
b00100100011000000010000100110101101110011011 T
#42047
0S
#42059
b00100100011000000000000100110101101110011011 T
#42071
b00100100011000000100000100110101101110011011 T
#42078
b00100100011000001101000100110101101110011011 T
#42111
b00100100011000001001000100110101101110011011 T
#42118
b00100100011000001011000100110101101110011011 T
#42148
b00100100011000001010000100110101101110011011 T
#42221
b00100100011000000010000100110101101110011011 T
#42237
b00100100011000000011000100110101101110011011 T
#42242
1S
#42269
0S
#42271
b01100100011000000011000100110101101110011011 T
#42281
b01100100011000000010000100110101101110011011 T
#42282
b01100100011000001010000100110101101110011011 T
#42317
b01000100011000001010000100110101101110011011 T
#42319
b01010100011000001010000100110101101110011011 T
#42342
b01000100011000001010000100110101101110011011 T
#42375
b00000100011000001010000100110101101110011011 T
#42386
b00000100011000001000000100110101101110011011 T
#42431
1S
b10100100011000001000000100110101101110011011 T
#42450
b10100100011000001010000100110101101110011011 T
#42468
0S
#42490
b11100100011000001010000100110101101110011011 T
#42503
b11100100011000001000000100110101101110011011 T
#42517
b11100100011000001000000000110101101110011011 T
#42519
b11100100011000001101000000110101101110011011 T
#42528
b01100100011000001101000000110101101110011011 T
#42532
1S
b00100100011000001101000000110101101110011011 T
#42544
b00100100011000001100000000110101101110011011 T
#42551
b00100100011000001000000000110101101110011011 T
#42567
b00100100011000001010000100110101101110011011 T
#42570
0S
#42688
b00000100011000001010000100110101101110011011 T
#42750
b00100100011000001010000100110101101110011011 T
#42751
b10100100011000001010000100110101101110011011 T
#42795
b11100100011000001010000100110101101110011011 T
#42821
b01100100011000001010000100110101101110011011 T
#42825
b00100100011000001010000100110101101110011011 T
#42917
b10100100011000001010000100110101101110011011 T
#42932
b10000100011000001010000100110101101110011011 T
#42955
b00000100011000001010000100110101101110011011 T
#42972
b01010100011000001010000100110101101110011011 T
#43030
b11010100011000001010000100110101101110011011 T
#43070
b01000100011000001010000100110101101110011011 T
#43072
b00000100011000001010000100110101101110011011 T
#43088
b00100100011000001010000100110101101110011011 T
#50000
b000000000000100000000000101100001100000000000000000000001111 "
#50054
b00100100011000001010000100000101101110011011 T
#50060
b00100100011000001010000110000101101110011011 T
#50725
1S
#50761
0S
#50835
1S
#51056
0S
#51079
b00000100011000001010000110000101101110011011 T
#51101
1S
#51142
b00000110011000001010000110000101101110011011 T
#51143
0S
#51171
b00000100011000001010000110000101101110011011 T
#51182
b11010100011000001010000110000101101110011011 T
#51204
1S
#51216
b11110100011000001010000110000101101110011011 T
#51224
b00100100011000001010000110000101101110011011 T
#51270
b00110100011000001010000110000101101110011011 T
#51294
0S
#51310
b00100100011000001010000110000101101110011011 T
#51315
b00100100011000000000000110000101101110011011 T
#51331
b00100100011000000001000110000101101110011011 T
#51337
1S
#51352
b00100100011000000001000110000101101010011011 T
#51357
b10110100011000000001000110000101101010011011 T
#51362
b10110100011000000000000110000101101010011011 T
#51375
b10110100011000000010000110000101101010011011 T
#51378
b10110100011000001010000110000101101010011011 T
#51402
b10110100011000001010000110000101101110011011 T
#51408
b10100100011000001010000110000101101110011011 T
#51409
b00100100011000001010000110000101101110011011 T
#51616
0S
#51678
1S
#51733
b00100000011000001010000110000101101110011011 T
#51760
b00100000011000001010000110000101100110011011 T
#51761
b00000000011000001010000110000101100110011011 T
#51769
b00000000011000001010000110000101110110011011 T
#51770
b01000000011000001010000110000101110110011011 T
#51793
b01000100011000001010000110000101110110011011 T
#51816
b01000100011000001010000110000101100110011011 T
#51818
b00000100011000001010000110000101100110011011 T
#51832
b00000100011000001010000110000101101110011011 T
#51834
b00100100011000001010000110000101101110011011 T
#51880
b00100100011000001010000110000101101110011001 T
#51881
b00100100011000001010000110000101101110011000 T
#51885
0S
#51889
b00100100011000001011000110000101101110011000 T
#51924
b00100100011000001001000110000101101110011000 T
#51931
b00100100011000001000000110000101101110011000 T
#51934
b00100100011000001000000110000101101110011011 T
#51939
b00100100011000000000000110000101101110011011 T
#51942
b00100100111000000000000110000101101110011011 T
#51959
b00000100111000000000000110000101101110011011 T
#51975
b10000100111000000000000110000101101110011011 T
#51984
b10000100011000000000000110000101101110011011 T
#51988
b10010100011000000000000110000101101110011011 T
#51989
b11010100010000000000000110000101101110011011 T
#51992
b11010100010000001010000110000101101110011011 T
#52017
b01000100010000001010000110000101101110011011 T
#52042
b01000100011000001010000110000101101110011011 T
#52045
b00000100011000001010000110000101101110011011 T
#52109
b10000100011000001010000110000101101110011011 T
#52121
b11000100011000001010000110000101101110011011 T
#52132
b11010100011000001010000110000101101110011011 T
#52189
b11110100011000001010000110000101101110011011 T
#52216
b11100100011000001010000110000101101110011011 T
#52307
b10100100011000001010000110000101101110011011 T
#52350
b00100100011000001010000110000101101110011011 T
